Pull and Tidy
…
fit_injuries_month

## # A tibble: 72 x 5
##    month    term                                 estimate std.error  p.value
##    <ord>    <chr>                                   <dbl>     <dbl>    <dbl>
##  1 January  (Intercept)                            -1.41     0.0143 0.      
##  2 January  2020 v. 2019, Borough: BRONX            0.265    0.0354 7.44e-14
##  3 January  2020 v. 2019, Borough: BROOKLYN         0.211    0.0283 9.02e-14
##  4 January  2020 v. 2019, Borough: MANHATTAN       -0.340    0.0472 5.37e-13
##  5 January  2020 v. 2019, Borough: QUEENS           0.148    0.0294 4.97e- 7
##  6 January  2020 v. 2019, Borough: STATEN ISLAND    0.688    0.0739 1.36e-20
##  7 February (Intercept)                            -1.44     0.0149 0.      
##  8 February 2020 v. 2019, Borough: BRONX            0.240    0.0383 3.81e-10
##  9 February 2020 v. 2019, Borough: BROOKLYN         0.179    0.0292 9.57e-10
## 10 February 2020 v. 2019, Borough: MANHATTAN       -0.180    0.0438 4.03e- 5
## # … with 62 more rows
…
