…
 
crash_dat %>% 
  group_by(vehicle_options) %>% 
  count() 
```

    ## # A tibble: 802 x 2
    ## # Groups:   vehicle_options [802]
    ##    vehicle_options     n
    ##    <chr>           <int>
    ##  1 0                   1
    ##  2 16M                 1
    ##  3 18 WEELER           1
    ##  4 18 WHEELER          1
    ##  5 1C                  1
    ##  6 2 dr sedan         21
    ##  7 3-Door             77
    ##  8 38AB-               1
    ##  9 4 dr sedan        293
    ## 10 4dsd                2
    ## # … with 792 more rows
…
