…
fit_injuries_month
```

    ## # A tibble: 72 x 5
    ##    month    term                                 estimate std.error  p.value
    ##    <ord>    <chr>                                   <dbl>     <dbl>    <dbl>
    ##  1 January  (Intercept)                          -1.37      0.00790 0.      
    ##  2 January  2020 v. 2019, Borough: BRONX          0.0660    0.0155  2.16e- 5
    ##  3 January  2020 v. 2019, Borough: BROOKLYN      -0.00353   0.0106  7.40e- 1
    ##  4 January  2020 v. 2019, Borough: MANHATTAN      0.185     0.0146  1.29e-36
    ##  5 January  2020 v. 2019, Borough: QUEENS         0.0410    0.0114  3.42e- 4
    ##  6 January  2020 v. 2019, Borough: STATEN ISLAND  0.0548    0.0292  6.03e- 2
    ##  7 February (Intercept)                          -1.38      0.00820 0.      
    ##  8 February 2020 v. 2019, Borough: BRONX          0.00114   0.0156  9.42e- 1
    ##  9 February 2020 v. 2019, Borough: BROOKLYN       0.00730   0.0111  5.12e- 1
    ## 10 February 2020 v. 2019, Borough: MANHATTAN      0.190     0.0150  1.02e-36
    ## # … with 62 more rows
…
